Google Data Analytics Capstone Project Report - Cyclistic Case Study
…
#Remove rows with duplicates, invalid rides, missing data, empty data
Cyclistic_trips_2019 <- distinct(Cyclistic_trips_2019)
Cyclistic_trips_2019_formatted <-  
  filter(Cyclistic_trips_2019, (ride_duration>0 & ride_duration<=1440)) ## 3816142 - 18 var
drop_na(Cyclistic_trips_2019_formatted)          ## 3818004 obs 18 var

## # A tibble: 3,257,907 x 20
##     trip_id start_time          end_time            bikeid tripduration
##       <dbl> <dttm>              <dttm>               <dbl>        <dbl>
##  1 21742443 2019-01-01 00:04:37 2019-01-01 00:11:07   2167          390
##  2 21742444 2019-01-01 00:08:13 2019-01-01 00:15:34   4386          441
##  3 21742445 2019-01-01 00:13:23 2019-01-01 00:27:12   1524          829
##  4 21742446 2019-01-01 00:13:45 2019-01-01 00:43:28    252         1783
##  5 21742447 2019-01-01 00:14:52 2019-01-01 00:20:56   1170          364
##  6 21742448 2019-01-01 00:15:33 2019-01-01 00:19:09   2437          216
##  7 21742449 2019-01-01 00:16:06 2019-01-01 00:19:03   2708          177
##  8 21742450 2019-01-01 00:18:41 2019-01-01 00:20:21   2796          100
##  9 21742451 2019-01-01 00:18:43 2019-01-01 00:47:30   6205         1727
## 10 21742452 2019-01-01 00:19:18 2019-01-01 00:24:54   3939          336
## # ... with 3,257,897 more rows, and 15 more variables: from_station_id <chr>,
## #   from_station_name <chr>, to_station_id <chr>, to_station_name <chr>,
## #   usertype <chr>, gender <chr>, birthyear <dbl>, date <date>, day <chr>,
## #   month <chr>, year <chr>, day_of_week <chr>, Start_time <dttm>,
## #   ride_duration <drtn>, quarters <chr>

remove_empty(Cyclistic_trips_2019_formatted)     ## 3818004 obs 18 var

## value for "which" not specified, defaulting to c("rows", "cols")

## # A tibble: 3,816,142 x 20
##     trip_id start_time          end_time            bikeid tripduration
##       <dbl> <dttm>              <dttm>               <dbl>        <dbl>
##  1 21742443 2019-01-01 00:04:37 2019-01-01 00:11:07   2167          390
##  2 21742444 2019-01-01 00:08:13 2019-01-01 00:15:34   4386          441
##  3 21742445 2019-01-01 00:13:23 2019-01-01 00:27:12   1524          829
##  4 21742446 2019-01-01 00:13:45 2019-01-01 00:43:28    252         1783
##  5 21742447 2019-01-01 00:14:52 2019-01-01 00:20:56   1170          364
##  6 21742448 2019-01-01 00:15:33 2019-01-01 00:19:09   2437          216
##  7 21742449 2019-01-01 00:16:06 2019-01-01 00:19:03   2708          177
##  8 21742450 2019-01-01 00:18:41 2019-01-01 00:20:21   2796          100
##  9 21742451 2019-01-01 00:18:43 2019-01-01 00:47:30   6205         1727
## 10 21742452 2019-01-01 00:19:18 2019-01-01 00:24:54   3939          336
## # ... with 3,816,132 more rows, and 15 more variables: from_station_id <chr>,
## #   from_station_name <chr>, to_station_id <chr>, to_station_name <chr>,
## #   usertype <chr>, gender <chr>, birthyear <dbl>, date <date>, day <chr>,
## #   month <chr>, year <chr>, day_of_week <chr>, Start_time <dttm>,
## #   ride_duration <drtn>, quarters <chr>

remove_missing(Cyclistic_trips_2019_formatted)   ## 3816142 obs 18 var - 558235 rows with missing values removed

## Warning: Removed 558235 rows containing missing values.

## # A tibble: 3,257,907 x 20
##     trip_id start_time          end_time            bikeid tripduration
##       <dbl> <dttm>              <dttm>               <dbl>        <dbl>
##  1 21742443 2019-01-01 00:04:37 2019-01-01 00:11:07   2167          390
##  2 21742444 2019-01-01 00:08:13 2019-01-01 00:15:34   4386          441
##  3 21742445 2019-01-01 00:13:23 2019-01-01 00:27:12   1524          829
##  4 21742446 2019-01-01 00:13:45 2019-01-01 00:43:28    252         1783
##  5 21742447 2019-01-01 00:14:52 2019-01-01 00:20:56   1170          364
##  6 21742448 2019-01-01 00:15:33 2019-01-01 00:19:09   2437          216
##  7 21742449 2019-01-01 00:16:06 2019-01-01 00:19:03   2708          177
##  8 21742450 2019-01-01 00:18:41 2019-01-01 00:20:21   2796          100
##  9 21742451 2019-01-01 00:18:43 2019-01-01 00:47:30   6205         1727
## 10 21742452 2019-01-01 00:19:18 2019-01-01 00:24:54   3939          336
## # ... with 3,257,897 more rows, and 15 more variables: from_station_id <chr>,
## #   from_station_name <chr>, to_station_id <chr>, to_station_name <chr>,
## #   usertype <chr>, gender <chr>, birthyear <dbl>, date <date>, day <chr>,
## #   month <chr>, year <chr>, day_of_week <chr>, Start_time <dttm>,
## #   ride_duration <drtn>, quarters <chr>
…
